Week 6
…
In our case today, we know there is no NA in the data so I omitted
na.rm = TRUE

Grouped Summaries with group_by()

Often, you want to compute summaries for subgroups within your data.
This is where group_by() comes into play.

gapminder %>%
  group_by(country) %>%
  summarize(avg_lifeExp = mean(lifeExp),
            n=n())

## # A tibble: 142 × 3
##    country          avg_lifeExp     n
##    <dbl+lbl>              <dbl> <int>
##  1  1 [Afghanistan]        37.5    12
##  2  2 [Albania]            68.4    12
##  3  3 [Algeria]            59.0    12
##  4  4 [Angola]             37.9    12
##  5  5 [Argentina]          69.1    12
##  6  6 [Australia]          74.7    12
##  7  7 [Austria]            73.1    12
##  8  8 [Bahrain]            65.6    12
##  9  9 [Bangladesh]         49.8    12
## 10 10 [Belgium]            73.6    12
## # ℹ 132 more rows
…
gapminder %>%
  group_by(continent,year) %>%
  summarize(
    prop_1000 = mean(gdpPercap<1000)*100
  )

## `summarise()` has regrouped the output.
## ℹ Summaries were computed grouped by continent and year.
## ℹ Output is grouped by continent.
## ℹ Use `summarise(.groups = "drop_last")` to silence this message.
## ℹ Use `summarise(.by = c(continent, year))` for per-operation grouping
##   (`?dplyr::dplyr_by`) instead.

## # A tibble: 60 × 3
## # Groups:   continent [5]
##    continent   year prop_1000
##    <dbl+lbl>  <dbl>     <dbl>
##  1 1 [Africa]  1952      50  
##  2 1 [Africa]  1957      48.1
##  3 1 [Africa]  1962      42.3
##  4 1 [Africa]  1967      34.6
##  5 1 [Africa]  1972      36.5
##  6 1 [Africa]  1977      38.5
##  7 1 [Africa]  1982      42.3
##  8 1 [Africa]  1987      42.3
##  9 1 [Africa]  1992      40.4
## 10 1 [Africa]  1997      42.3
## # ℹ 50 more rows
…
